…
Figure 2.
Box plot and distribution of the proportions of victims who are recorded to have posed a threat to an officer’s life by race from 2015 to current.

r.proportion %>%
  lm(formula = race.proportion ~ race * year, data = .) -> model
r.proportion
## # A tibble: 42 x 5
## # Groups:   year [6]
##    threat_level race      year count race.proportion
##    <fct>        <fct>    <dbl> <dbl>           <dbl>
##  1 attack       Asian     2015    10         0.0137 
##  2 attack       Black     2015   183         0.25   
##  3 attack       Hispanic  2015   106         0.145  
##  4 attack       Native    2015     6         0.00820
##  5 attack       NR        2015    21         0.0287 
##  6 attack       Other     2015     9         0.0123 
##  7 attack       White     2015   397         0.542  
##  8 attack       Asian     2016     5         0.00923
##  9 attack       Black     2016   147         0.271  
## 10 attack       Hispanic  2016    88         0.162  
## # ... with 32 more rows
…
